Stack’Em High! Ensembles Using tidymodels
…
]

---
# Step 2: Resample or Tune the Models <img src="images/tune.svg" class="title-hex">

.code95[

.pull-left[

```r
collect_metrics(ranger_tune, summarize = FALSE)
```

```
## # A tibble: 250 x 7
##    id      mtry min_n .metric .estimator .estimate .config
##    <chr>  <int> <int> <chr>   <chr>          <dbl> <chr>  
##  1 Fold01    27     5 roc_auc binary         0.893 Model01
##  2 Fold02    27     5 roc_auc binary         0.927 Model01
##  3 Fold03    27     5 roc_auc binary         0.901 Model01
##  4 Fold04    27     5 roc_auc binary         0.875 Model01
##  5 Fold05    27     5 roc_auc binary         0.916 Model01
##  6 Fold06    27     5 roc_auc binary         0.893 Model01
##  7 Fold07    27     5 roc_auc binary         0.914 Model01
##  8 Fold08    27     5 roc_auc binary         0.927 Model01
##  9 Fold09    27     5 roc_auc binary         0.905 Model01
## 10 Fold10    27     5 roc_auc binary         0.911 Model01
## # … with 240 more rows
```
]
.pull-right[

```r
collect_predictions(ranger_tune) %>% 
  arrange(.config, .row)
```

```
## # A tibble: 37,875 x 8
##    id     .pred_PS .pred_WS  .row  mtry min_n class .config
##    <chr>     <dbl>    <dbl> <int> <int> <int> <fct> <chr>  
##  1 Fold10   0.424    0.576      1    27     5 WS    Model01
##  2 Fold10   0.705    0.295      2    27     5 PS    Model01
##  3 Fold08   0.980    0.0204     3    27     5 PS    Model01
##  4 Fold01   0.0882   0.912      4    27     5 WS    Model01
##  5 Fold10   0.188    0.812      5    27     5 WS    Model01
##  6 Fold10   0.415    0.585      6    27     5 WS    Model01
##  7 Fold08   0.718    0.282      7    27     5 WS    Model01
##  8 Fold10   0.152    0.848      8    27     5 WS    Model01
##  9 Fold08   0.789    0.212      9    27     5 WS    Model01
## 10 Fold02   0.882    0.118     10    27     5 PS    Model01
## # … with 37,865 more rows
```
…
